<define-tag pagetitle>DLA-3033-1 smarty3</define-tag>
<define-tag report_date>2022-5-29</define-tag>
<define-tag secrefs>CVE-2022-29221 Bug#1011758</define-tag>
<define-tag packages>smarty3</define-tag>
<define-tag isvulnerable>yes</define-tag>
<define-tag fixed>yes</define-tag>
<define-tag fixed-section>no</define-tag>

#use wml::debian::security

