<define-tag pagetitle>DLA-3000-1 waitress</define-tag>
<define-tag report_date>2022-05-12</define-tag>
<define-tag secrefs>CVE-2019-16785 CVE-2019-16786 CVE-2019-16789 CVE-2019-16792 CVE-2022-24761 Bug#1008013</define-tag>
<define-tag packages>waitress</define-tag>
<define-tag isvulnerable>yes</define-tag>
<define-tag fixed>yes</define-tag>
<define-tag fixed-section>no</define-tag>

#use wml::debian::security

