<define-tag pagetitle>DLA-2974-1 fribidi</define-tag>
<define-tag report_date>2022-4-14</define-tag>
<define-tag secrefs>CVE-2022-25308 CVE-2022-25309 CVE-2022-25310</define-tag>
<define-tag packages>fribidi</define-tag>
<define-tag isvulnerable>yes</define-tag>
<define-tag fixed>yes</define-tag>
<define-tag fixed-section>no</define-tag>

#use wml::debian::security

