<define-tag pagetitle>DSA-4924-1 squid</define-tag>
<define-tag report_date>2021-6-01</define-tag>
<define-tag secrefs>CVE-2021-28651 CVE-2021-28652 CVE-2021-28662 CVE-2021-31806 CVE-2021-31807 CVE-2021-31808 Bug#988891 Bug#988892 Bug#988893 Bug#989043</define-tag>
<define-tag packages>squid</define-tag>
<define-tag isvulnerable>yes</define-tag>
<define-tag fixed>yes</define-tag>
<define-tag fixed-section>no</define-tag>

#use wml::debian::security



</dl>
