<define-tag pagetitle>DSA-4904-1 gst-plugins-ugly1.0</define-tag>
<define-tag report_date>2021-4-24</define-tag>
<define-tag secrefs>not yet available</define-tag>
<define-tag packages>gst-plugins-ugly1.0</define-tag>
<define-tag isvulnerable>yes</define-tag>
<define-tag fixed>yes</define-tag>
<define-tag fixed-section>no</define-tag>

#use wml::debian::security



</dl>
