<define-tag pagetitle>DSA-4769-1 xen</define-tag>
<define-tag report_date>2020-10-02</define-tag>
<define-tag secrefs>CVE-2020-25595 CVE-2020-25596 CVE-2020-25597 CVE-2020-25599 CVE-2020-25600 CVE-2020-25601 CVE-2020-25602 CVE-2020-25603 CVE-2020-25604</define-tag>
<define-tag packages>xen</define-tag>
<define-tag isvulnerable>yes</define-tag>
<define-tag fixed>yes</define-tag>
<define-tag fixed-section>no</define-tag>

#use wml::debian::security



</dl>
