<define-tag pagetitle>DLA-2765-1 mupdf</define-tag>
<define-tag report_date>2021-09-23</define-tag>
<define-tag secrefs>CVE-2016-10246 CVE-2016-10247 CVE-2017-6060 CVE-2018-10289 CVE-2018-1000036 CVE-2020-19609</define-tag>
<define-tag packages>mupdf</define-tag>
<define-tag isvulnerable>yes</define-tag>
<define-tag fixed>yes</define-tag>
<define-tag fixed-section>no</define-tag>

#use wml::debian::security

