<define-tag pagetitle>DLA-2741-1 commons-io</define-tag>
<define-tag report_date>2021-8-12</define-tag>
<define-tag secrefs>CVE-2021-29425</define-tag>
<define-tag packages>commons-io</define-tag>
<define-tag isvulnerable>yes</define-tag>
<define-tag fixed>yes</define-tag>
<define-tag fixed-section>no</define-tag>

#use wml::debian::security

