<define-tag pagetitle>DLA-781-1 asterisk</define-tag>
<define-tag report_date>2017-1-13</define-tag>
<define-tag secrefs>CVE-2014-2287 CVE-2016-7551 Bug#838832 Bug#741313</define-tag>
<define-tag packages>asterisk</define-tag>
<define-tag isvulnerable>yes</define-tag>
<define-tag fixed>yes</define-tag>
<define-tag fixed-section>no</define-tag>

#use wml::debian::security

