<define-tag pagetitle>DLA-953-1 graphicsmagick</define-tag>
<define-tag report_date>2017-5-26</define-tag>
<define-tag secrefs>CVE-2017-9098 Bug#862967</define-tag>
<define-tag packages>graphicsmagick</define-tag>
<define-tag isvulnerable>yes</define-tag>
<define-tag fixed>yes</define-tag>
<define-tag fixed-section>no</define-tag>

#use wml::debian::security

