<define-tag pagetitle>DLA-2095-1 storebackup</define-tag>
<define-tag report_date>2020-02-05</define-tag>
<define-tag secrefs>CVE-2020-7040 Bug#949393</define-tag>
<define-tag packages>storebackup</define-tag>
<define-tag isvulnerable>yes</define-tag>
<define-tag fixed>yes</define-tag>
<define-tag fixed-section>no</define-tag>

#use wml::debian::security

