<define-tag pagetitle>DSA-5164-1 exo</define-tag>
<define-tag report_date>2022-6-18</define-tag>
<define-tag secrefs>CVE-2022-32278 Bug#1013129</define-tag>
<define-tag packages>exo</define-tag>
<define-tag isvulnerable>yes</define-tag>
<define-tag fixed>yes</define-tag>
<define-tag fixed-section>no</define-tag>

#use wml::debian::security



</dl>
