<define-tag pagetitle>DLA-1815-1 poppler</define-tag>
<define-tag report_date>2019-06-06</define-tag>
<define-tag secrefs>CVE-2019-10872 CVE-2019-12293 CVE-2019-12360</define-tag>
<define-tag packages>poppler</define-tag>
<define-tag isvulnerable>yes</define-tag>
<define-tag fixed>yes</define-tag>
<define-tag fixed-section>no</define-tag>

#use wml::debian::security

