<define-tag pagetitle>DLA-1917-1 curl</define-tag>
<define-tag report_date>2019-09-12</define-tag>
<define-tag secrefs>CVE-2019-5482</define-tag>
<define-tag packages>curl</define-tag>
<define-tag isvulnerable>yes</define-tag>
<define-tag fixed>yes</define-tag>
<define-tag fixed-section>no</define-tag>

#use wml::debian::security
