<define-tag pagetitle>DLA-663-1 tor</define-tag>
<define-tag report_date>2016-10-18</define-tag>
<define-tag packages>tor</define-tag>
<define-tag isvulnerable>yes</define-tag>
<define-tag fixed>yes</define-tag>
<define-tag fixed-section>no</define-tag>

#use wml::debian::security

