<define-tag pagetitle>DLA-639-1 mactelnet</define-tag>
<define-tag report_date>2016-9-25</define-tag>
<define-tag secrefs>CVE-2016-7115</define-tag>
<define-tag packages>mactelnet</define-tag>
<define-tag isvulnerable>yes</define-tag>
<define-tag fixed>yes</define-tag>
<define-tag fixed-section>no</define-tag>

#use wml::debian::security

